{"failedCount":0,"prefixedPath":"src\/test\/java\/examples\/users\/users.feature","packageQualifiedName":"src.test.java.examples.users.users","loopIndex":-1,"relativePath":"src\/test\/java\/examples\/users\/users.feature","scenarioResults":[{"sectionIndex":0,"stepResults":[{"result":{"nanos":1854700,"millis":1.8547,"status":"passed"},"step":{"background":true,"line":4,"prefix":"*","index":0,"text":"url 'https:\/\/rickandmortyapi.com\/api'"},"stepLog":"02:26:43.120 karate.env system property was: null \n"},{"result":{"nanos":7807900,"millis":7.8079,"status":"passed"},"step":{"line":7,"prefix":"Given","index":0,"text":"path 'character'"}},{"result":{"nanos":1281414100,"millis":1281.4141,"status":"passed"},"step":{"line":8,"prefix":"When","index":1,"text":"method get"},"stepLog":"02:26:43.746 request:\n1 > GET https:\/\/rickandmortyapi.com\/api\/character\n1 > Host: rickandmortyapi.com\n1 > Connection: Keep-Alive\n1 > User-Agent: Apache-HttpClient\/4.5.13 (Java\/15.0.2)\n1 > Accept-Encoding: gzip,deflate\n\n\n02:26:44.458 response time in milliseconds: 673\n1 < 200\n1 < access-control-allow-origin: *\n1 < cache-control: max-age=259200\n1 < cache-control: public\n1 < content-type: application\/json; charset=utf-8\n1 < date: Tue, 04 May 2021 19:36:22 GMT\n1 < etag: W\/\"4404-SNoWp9oJrt6FZBVyNVcSZLlYtdo\"\n1 < expires: Fri, 07 May 2021 19:36:22 GMT\n1 < server: Netlify\n1 < x-language: \n1 < vary: Accept-Encoding\n1 < x-nf-request-id: aa78d7f6-3b98-4ca5-ba23-4f651d486b46\n1 < age: 39023\n1 < x-country: DO\n1 < x-powered-by: Express\n{\"results\":[{\"image\":\"https:\\\/\\\/rickandmortyapi.com\\\/api\\\/character\\\/avatar\\\/1.jpeg\",\"gender\":\"Male\",\"species\":\"Human\",\"created\":\"2017-11-04T18:48:46.250Z\",\"origin\":{\"name\":\"Earth (C-137)\",\"url\":\"https:\\\/\\\/rickandmortyapi.com\\\/api\\\/location\\\/1\"},\"name\":\"Rick Sanchez\",\"location\":{\"name\":\"Earth (Replacement Dimension)\",\"url\":\"https:\\\/\\\/rickandmortyapi.com\\\/api\\\/location\\\/20\"},\"episode\":[\"https:\\\/\\\/rickandmortyapi.com\\\/api\\\/episode\\\/1\",\"https:\\\/\\\/rickandmortyapi.com\\\/api\\\/episode\\\/2\",\"https:\\\/\\\/rickandmortyapi.com\\\/api\\\/episode\\\/3\",\"https:\\\/\\\/rickandmortyapi.com\\\/api\\\/episode\\\/4\",\"https:\\\/\\\/rickandmortyapi.com\\\/api\\\/episode\\\/5\",\"https:\\\/\\\/rickandmortyapi.com\\\/api\\\/episode\\\/6\",\"https:\\\/\\\/rickandmortyapi.com\\\/api\\\/episode\\\/7\",\"https:\\\/\\\/rickandmortyapi.com\\\/api\\\/episode\\\/8\",\"https:\\\/\\\/rickandmortyapi.com\\\/api\\\/episode\\\/9\",\"https:\\\/\\\/rickandmortyapi.com\\\/api\\\/episode\\\/10\",\"https:\\\/\\\/rickandmortyapi.com\\\/api\\\/episode\\\/11\",\"https:\\\/\\\/rickandmortyapi.com\\\/api\\\/episode\\\/12\",\"https:\\\/\\\/rickandmortyapi.com\\\/api\\\/episode\\\/13\",\"https:\\\/\\\/rickandmortyapi.com\\\/api\\\/episode\\\/14\",\"https:\\\/\\\/rickandmortyapi.com\\\/api\\\/episode\\\/15\",\"https:\\\/\\\/rickandmortyapi.com\\\/api\\\/episode\\\/16\",\"https:\\\/\\\/rickandmortyapi.com\\\/api\\\/episode\\\/17\",\"https:\\\/\\\/rickandmortyapi.com\\\/api\\\/episode\\\/18\",\"https:\\\/\\\/rickandmortyapi.com\\\/api\\\/episode\\\/19\",\"https:\\\/\\\/rickandmortyapi.com\\\/api\\\/episode\\\/20\",\"https:\\\/\\\/rickandmortyapi.com\\\/api\\\/episode\\\/21\",\"https:\\\/\\\/rickandmortyapi.com\\\/api\\\/episode\\\/22\",\"https:\\\/\\\/rickandmortyapi.com\\\/api\\\/episode\\\/23\",\"https:\\\/\\\/rickandmortyapi.com\\\/api\\\/episode\\\/24\",\"https:\\\/\\\/rickandmortyapi.com\\\/api\\\/episode\\\/25\",\"https:\\\/\\\/rickandmortyapi.com\\\/api\\\/episode\\\/26\",\"https:\\\/\\\/rickandmortyapi.com\\\/api\\\/episode\\\/27\",\"https:\\\/\\\/rickandmortyapi.com\\\/api\\\/episode\\\/28\",\"https:\\\/\\\/rickandmortyapi.com\\\/api\\\/episode\\\/29\",\"https:\\\/\\\/rickandmortyapi.com\\\/api\\\/episode\\\/30\",\"https:\\\/\\\/rickandmortyapi.com\\\/api\\\/episode\\\/31\",\"https:\\\/\\\/rickandmortyapi.com\\\/api\\\/episode\\\/32\",\"https:\\\/\\\/rickandmortyapi.com\\\/api\\\/episode\\\/33\",\"https:\\\/\\\/rickandmortyapi.com\\\/api\\\/episode\\\/34\",\"https:\\\/\\\/rickandmortyapi.com\\\/api\\\/episode\\\/35\",\"https:\\\/\\\/rickandmortyapi.com\\\/api\\\/episode\\\/36\",\"https:\\\/\\\/rickandmortyapi.com\\\/api\\\/episode\\\/37\",\"https:\\\/\\\/rickandmortyapi.com\\\/api\\\/episode\\\/38\",\"https:\\\/\\\/rickandmortyapi.com\\\/api\\\/episode\\\/39\",\"https:\\\/\\\/rickandmortyapi.com\\\/api\\\/episode\\\/40\",\"https:\\\/\\\/rickandmortyapi.com\\\/api\\\/episode\\\/41\"],\"id\":1,\"type\":\"\",\"url\":\"https:\\\/\\\/rickandmortyapi.com\\\/api\\\/character\\\/1\",\"status\":\"Alive\"},{\"image\":\"https:\\\/\\\/rickandmortyapi.com\\\/api\\\/character\\\/avatar\\\/2.jpeg\",\"gender\":\"Male\",\"species\":\"Human\",\"created\":\"2017-11-04T18:50:21.651Z\",\"origin\":{\"name\":\"Earth (C-137)\",\"url\":\"https:\\\/\\\/rickandmortyapi.com\\\/api\\\/location\\\/1\"},\"name\":\"Morty Smith\",\"location\":{\"name\":\"Earth (Replacement Dimension)\",\"url\":\"https:\\\/\\\/rickandmortyapi.com\\\/api\\\/location\\\/20\"},\"episode\":[\"https:\\\/\\\/rickandmortyapi.com\\\/api\\\/episode\\\/1\",\"https:\\\/\\\/rickandmortyapi.com\\\/api\\\/episode\\\/2\",\"https:\\\/\\\/rickandmortyapi.com\\\/api\\\/episode\\\/3\",\"https:\\\/\\\/rickandmortyapi.com\\\/api\\\/episode\\\/4\",\"https:\\\/\\\/rickandmortyapi.com\\\/api\\\/episode\\\/5\",\"https:\\\/\\\/rickandmortyapi.com\\\/api\\\/episode\\\/6\",\"https:\\\/\\\/rickandmortyapi.com\\\/api\\\/episode\\\/7\",\"https:\\\/\\\/rickandmortyapi.com\\\/api\\\/episode\\\/8\",\"https:\\\/\\\/rickandmortyapi.com\\\/api\\\/episode\\\/9\",\"https:\\\/\\\/rickandmortyapi.com\\\/api\\\/episode\\\/10\",\"https:\\\/\\\/rickandmortyapi.com\\\/api\\\/episode\\\/11\",\"https:\\\/\\\/rickandmortyapi.com\\\/api\\\/episode\\\/12\",\"https:\\\/\\\/rickandmortyapi.com\\\/api\\\/episode\\\/13\",\"https:\\\/\\\/rickandmortyapi.com\\\/api\\\/episode\\\/14\",\"https:\\\/\\\/rickandmortyapi.com\\\/api\\\/episode\\\/15\",\"https:\\\/\\\/rickandmortyapi.com\\\/api\\\/episode\\\/16\",\"https:\\\/\\\/rickandmortyapi.com\\\/api\\\/episode\\\/17\",\"https:\\\/\\\/rickandmortyapi.com\\\/api\\\/episode\\\/18\",\"https:\\\/\\\/rickandmortyapi.com\\\/api\\\/episode\\\/19\",\"https:\\\/\\\/rickandmortyapi.com\\\/api\\\/episode\\\/20\",\"https:\\\/\\\/rickandmortyapi.com\\\/api\\\/episode\\\/21\",\"https:\\\/\\\/rickandmortyapi.com\\\/api\\\/episode\\\/22\",\"https:\\\/\\\/rickandmortyapi.com\\\/api\\\/episode\\\/23\",\"https:\\\/\\\/rickandmortyapi.com\\\/api\\\/episode\\\/24\",\"https:\\\/\\\/rickandmortyapi.com\\\/api\\\/episode\\\/25\",\"https:\\\/\\\/rickandmortyapi.com\\\/api\\\/episode\\\/26\",\"https:\\\/\\\/rickandmortyapi.com\\\/api\\\/episode\\\/27\",\"https:\\\/\\\/rickandmortyapi.com\\\/api\\\/episode\\\/28\",\"https:\\\/\\\/rickandmortyapi.com\\\/api\\\/episode\\\/29\",\"https:\\\/\\\/rickandmortyapi.com\\\/api\\\/episode\\\/30\",\"https:\\\/\\\/rickandmortyapi.com\\\/api\\\/episode\\\/31\",\"https:\\\/\\\/rickandmortyapi.com\\\/api\\\/episode\\\/32\",\"https:\\\/\\\/rickandmortyapi.com\\\/api\\\/episode\\\/33\",\"https:\\\/\\\/rickandmortyapi.com\\\/api\\\/episode\\\/34\",\"https:\\\/\\\/rickandmortyapi.com\\\/api\\\/episode\\\/35\",\"https:\\\/\\\/rickandmortyapi.com\\\/api\\\/episode\\\/36\",\"https:\\\/\\\/rickandmortyapi.com\\\/api\\\/episode\\\/37\",\"https:\\\/\\\/rickandmortyapi.com\\\/api\\\/episode\\\/38\",\"https:\\\/\\\/rickandmortyapi.com\\\/api\\\/episode\\\/39\",\"https:\\\/\\\/rickandmortyapi.com\\\/api\\\/episode\\\/40\",\"https:\\\/\\\/rickandmortyapi.com\\\/api\\\/episode\\\/41\"],\"id\":2,\"type\":\"\",\"url\":\"https:\\\/\\\/rickandmortyapi.com\\\/api\\\/character\\\/2\",\"status\":\"Alive\"},{\"image\":\"https:\\\/\\\/rickandmortyapi.com\\\/api\\\/character\\\/avatar\\\/3.jpeg\",\"gender\":\"Female\",\"species\":\"Human\",\"created\":\"2017-11-04T19:09:56.428Z\",\"origin\":{\"name\":\"Earth (Replacement Dimension)\",\"url\":\"https:\\\/\\\/rickandmortyapi.com\\\/api\\\/location\\\/20\"},\"name\":\"Summer Smith\",\"location\":{\"name\":\"Earth (Replacement Dimension)\",\"url\":\"https:\\\/\\\/rickandmortyapi.com\\\/api\\\/location\\\/20\"},\"episode\":[\"https:\\\/\\\/rickandmortyapi.com\\\/api\\\/episode\\\/6\",\"https:\\\/\\\/rickandmortyapi.com\\\/api\\\/episode\\\/7\",\"https:\\\/\\\/rickandmortyapi.com\\\/api\\\/episode\\\/8\",\"https:\\\/\\\/rickandmortyapi.com\\\/api\\\/episode\\\/9\",\"https:\\\/\\\/rickandmortyapi.com\\\/api\\\/episode\\\/10\",\"https:\\\/\\\/rickandmortyapi.com\\\/api\\\/episode\\\/11\",\"https:\\\/\\\/rickandmortyapi.com\\\/api\\\/episode\\\/12\",\"https:\\\/\\\/rickandmortyapi.com\\\/api\\\/episode\\\/14\",\"https:\\\/\\\/rickandmortyapi.com\\\/api\\\/episode\\\/15\",\"https:\\\/\\\/rickandmortyapi.com\\\/api\\\/episode\\\/16\",\"https:\\\/\\\/rickandmortyapi.com\\\/api\\\/episode\\\/17\",\"https:\\\/\\\/rickandmortyapi.com\\\/api\\\/episode\\\/18\",\"https:\\\/\\\/rickandmortyapi.com\\\/api\\\/episode\\\/19\",\"https:\\\/\\\/rickandmortyapi.com\\\/api\\\/episode\\\/20\",\"https:\\\/\\\/rickandmortyapi.com\\\/api\\\/episode\\\/21\",\"https:\\\/\\\/rickandmortyapi.com\\\/api\\\/episode\\\/22\",\"https:\\\/\\\/rickandmortyapi.com\\\/api\\\/episode\\\/23\",\"https:\\\/\\\/rickandmortyapi.com\\\/api\\\/episode\\\/24\",\"https:\\\/\\\/rickandmortyapi.com\\\/api\\\/episode\\\/25\",\"https:\\\/\\\/rickandmortyapi.com\\\/api\\\/episode\\\/26\",\"https:\\\/\\\/rickandmortyapi.com\\\/api\\\/episode\\\/27\",\"https:\\\/\\\/rickandmortyapi.com\\\/api\\\/episode\\\/29\",\"https:\\\/\\\/rickandmortyapi.com\\\/api\\\/episode\\\/30\",\"https:\\\/\\\/rickandmortyapi.com\\\/api\\\/episode\\\/31\",\"https:\\\/\\\/rickandmortyapi.com\\\/api\\\/episode\\\/32\",\"https:\\\/\\\/rickandmortyapi.com\\\/api\\\/episode\\\/33\",\"https:\\\/\\\/rickandmortyapi.com\\\/api\\\/episode\\\/34\",\"https:\\\/\\\/rickandmortyapi.com\\\/api\\\/episode\\\/35\",\"https:\\\/\\\/rickandmortyapi.com\\\/api\\\/episode\\\/36\",\"https:\\\/\\\/rickandmortyapi.com\\\/api\\\/episode\\\/38\",\"https:\\\/\\\/rickandmortyapi.com\\\/api\\\/episode\\\/39\",\"https:\\\/\\\/rickandmortyapi.com\\\/api\\\/episode\\\/40\",\"https:\\\/\\\/rickandmortyapi.com\\\/api\\\/episode\\\/41\"],\"id\":3,\"type\":\"\",\"url\":\"https:\\\/\\\/rickandmortyapi.com\\\/api\\\/character\\\/3\",\"status\":\"Alive\"},{\"image\":\"https:\\\/\\\/rickandmortyapi.com\\\/api\\\/character\\\/avatar\\\/4.jpeg\",\"gender\":\"Female\",\"species\":\"Human\",\"created\":\"2017-11-04T19:22:43.665Z\",\"origin\":{\"name\":\"Earth (Replacement Dimension)\",\"url\":\"https:\\\/\\\/rickandmortyapi.com\\\/api\\\/location\\\/20\"},\"name\":\"Beth Smith\",\"location\":{\"name\":\"Earth (Replacement Dimension)\",\"url\":\"https:\\\/\\\/rickandmortyapi.com\\\/api\\\/location\\\/20\"},\"episode\":[\"https:\\\/\\\/rickandmortyapi.com\\\/api\\\/episode\\\/6\",\"https:\\\/\\\/rickandmortyapi.com\\\/api\\\/episode\\\/7\",\"https:\\\/\\\/rickandmortyapi.com\\\/api\\\/episode\\\/8\",\"https:\\\/\\\/rickandmortyapi.com\\\/api\\\/episode\\\/9\",\"https:\\\/\\\/rickandmortyapi.com\\\/api\\\/episode\\\/10\",\"https:\\\/\\\/rickandmortyapi.com\\\/api\\\/episode\\\/11\",\"https:\\\/\\\/rickandmortyapi.com\\\/api\\\/episode\\\/12\",\"https:\\\/\\\/rickandmortyapi.com\\\/api\\\/episode\\\/14\",\"https:\\\/\\\/rickandmortyapi.com\\\/api\\\/episode\\\/15\",\"https:\\\/\\\/rickandmortyapi.com\\\/api\\\/episode\\\/16\",\"https:\\\/\\\/rickandmortyapi.com\\\/api\\\/episode\\\/18\",\"https:\\\/\\\/rickandmortyapi.com\\\/api\\\/episode\\\/19\",\"https:\\\/\\\/rickandmortyapi.com\\\/api\\\/episode\\\/20\",\"https:\\\/\\\/rickandmortyapi.com\\\/api\\\/episode\\\/21\",\"https:\\\/\\\/rickandmortyapi.com\\\/api\\\/episode\\\/22\",\"https:\\\/\\\/rickandmortyapi.com\\\/api\\\/episode\\\/23\",\"https:\\\/\\\/rickandmortyapi.com\\\/api\\\/episode\\\/24\",\"https:\\\/\\\/rickandmortyapi.com\\\/api\\\/episode\\\/25\",\"https:\\\/\\\/rickandmortyapi.com\\\/api\\\/episode\\\/26\",\"https:\\\/\\\/rickandmortyapi.com\\\/api\\\/episode\\\/27\",\"https:\\\/\\\/rickandmortyapi.com\\\/api\\\/episode\\\/28\",\"https:\\\/\\\/rickandmortyapi.com\\\/api\\\/episode\\\/29\",\"https:\\\/\\\/rickandmortyapi.com\\\/api\\\/episode\\\/30\",\"https:\\\/\\\/rickandmortyapi.com\\\/api\\\/episode\\\/31\",\"https:\\\/\\\/rickandmortyapi.com\\\/api\\\/episode\\\/32\",\"https:\\\/\\\/rickandmortyapi.com\\\/api\\\/episode\\\/33\",\"https:\\\/\\\/rickandmortyapi.com\\\/api\\\/episode\\\/34\",\"https:\\\/\\\/rickandmortyapi.com\\\/api\\\/episode\\\/35\",\"https:\\\/\\\/rickandmortyapi.com\\\/api\\\/episode\\\/36\",\"https:\\\/\\\/rickandmortyapi.com\\\/api\\\/episode\\\/38\",\"https:\\\/\\\/rickandmortyapi.com\\\/api\\\/episode\\\/39\",\"https:\\\/\\\/rickandmortyapi.com\\\/api\\\/episode\\\/40\",\"https:\\\/\\\/rickandmortyapi.com\\\/api\\\/episode\\\/41\"],\"id\":4,\"type\":\"\",\"url\":\"https:\\\/\\\/rickandmortyapi.com\\\/api\\\/character\\\/4\",\"status\":\"Alive\"},{\"image\":\"https:\\\/\\\/rickandmortyapi.com\\\/api\\\/character\\\/avatar\\\/5.jpeg\",\"gender\":\"Male\",\"species\":\"Human\",\"created\":\"2017-11-04T19:26:56.301Z\",\"origin\":{\"name\":\"Earth (Replacement Dimension)\",\"url\":\"https:\\\/\\\/rickandmortyapi.com\\\/api\\\/location\\\/20\"},\"name\":\"Jerry Smith\",\"location\":{\"name\":\"Earth (Replacement Dimension)\",\"url\":\"https:\\\/\\\/rickandmortyapi.com\\\/api\\\/location\\\/20\"},\"episode\":[\"https:\\\/\\\/rickandmortyapi.com\\\/api\\\/episode\\\/6\",\"https:\\\/\\\/rickandmortyapi.com\\\/api\\\/episode\\\/7\",\"https:\\\/\\\/rickandmortyapi.com\\\/api\\\/episode\\\/8\",\"https:\\\/\\\/rickandmortyapi.com\\\/api\\\/episode\\\/9\",\"https:\\\/\\\/rickandmortyapi.com\\\/api\\\/episode\\\/10\",\"https:\\\/\\\/rickandmortyapi.com\\\/api\\\/episode\\\/11\",\"https:\\\/\\\/rickandmortyapi.com\\\/api\\\/episode\\\/12\",\"https:\\\/\\\/rickandmortyapi.com\\\/api\\\/episode\\\/13\",\"https:\\\/\\\/rickandmortyapi.com\\\/api\\\/episode\\\/14\",\"https:\\\/\\\/rickandmortyapi.com\\\/api\\\/episode\\\/15\",\"https:\\\/\\\/rickandmortyapi.com\\\/api\\\/episode\\\/16\",\"https:\\\/\\\/rickandmortyapi.com\\\/api\\\/episode\\\/18\",\"https:\\\/\\\/rickandmortyapi.com\\\/api\\\/episode\\\/19\",\"https:\\\/\\\/rickandmortyapi.com\\\/api\\\/episode\\\/20\",\"https:\\\/\\\/rickandmortyapi.com\\\/api\\\/episode\\\/21\",\"https:\\\/\\\/rickandmortyapi.com\\\/api\\\/episode\\\/22\",\"https:\\\/\\\/rickandmortyapi.com\\\/api\\\/episode\\\/23\",\"https:\\\/\\\/rickandmortyapi.com\\\/api\\\/episode\\\/26\",\"https:\\\/\\\/rickandmortyapi.com\\\/api\\\/episode\\\/29\",\"https:\\\/\\\/rickandmortyapi.com\\\/api\\\/episode\\\/30\",\"https:\\\/\\\/rickandmortyapi.com\\\/api\\\/episode\\\/31\",\"https:\\\/\\\/rickandmortyapi.com\\\/api\\\/episode\\\/32\",\"https:\\\/\\\/rickandmortyapi.com\\\/api\\\/episode\\\/33\",\"https:\\\/\\\/rickandmortyapi.com\\\/api\\\/episode\\\/35\",\"https:\\\/\\\/rickandmortyapi.com\\\/api\\\/episode\\\/36\",\"https:\\\/\\\/rickandmortyapi.com\\\/api\\\/episode\\\/38\",\"https:\\\/\\\/rickandmortyapi.com\\\/api\\\/episode\\\/39\",\"https:\\\/\\\/rickandmortyapi.com\\\/api\\\/episode\\\/40\",\"https:\\\/\\\/rickandmortyapi.com\\\/api\\\/episode\\\/41\"],\"id\":5,\"type\":\"\",\"url\":\"https:\\\/\\\/rickandmortyapi.com\\\/api\\\/character\\\/5\",\"status\":\"Alive\"},{\"image\":\"https:\\\/\\\/rickandmortyapi.com\\\/api\\\/character\\\/avatar\\\/6.jpeg\",\"gender\":\"Female\",\"species\":\"Alien\",\"created\":\"2017-11-04T19:50:28.250Z\",\"origin\":{\"name\":\"Abadango\",\"url\":\"https:\\\/\\\/rickandmortyapi.com\\\/api\\\/location\\\/2\"},\"name\":\"Abadango Cluster Princess\",\"location\":{\"name\":\"Abadango\",\"url\":\"https:\\\/\\\/rickandmortyapi.com\\\/api\\\/location\\\/2\"},\"episode\":[\"https:\\\/\\\/rickandmortyapi.com\\\/api\\\/episode\\\/27\"],\"id\":6,\"type\":\"\",\"url\":\"https:\\\/\\\/rickandmortyapi.com\\\/api\\\/character\\\/6\",\"status\":\"Alive\"},{\"image\":\"https:\\\/\\\/rickandmortyapi.com\\\/api\\\/character\\\/avatar\\\/7.jpeg\",\"gender\":\"Male\",\"species\":\"Human\",\"created\":\"2017-11-04T19:59:20.523Z\",\"origin\":{\"name\":\"Earth (Replacement Dimension)\",\"url\":\"https:\\\/\\\/rickandmortyapi.com\\\/api\\\/location\\\/20\"},\"name\":\"Abradolf Lincler\",\"location\":{\"name\":\"Testicle Monster Dimension\",\"url\":\"https:\\\/\\\/rickandmortyapi.com\\\/api\\\/location\\\/21\"},\"episode\":[\"https:\\\/\\\/rickandmortyapi.com\\\/api\\\/episode\\\/10\",\"https:\\\/\\\/rickandmortyapi.com\\\/api\\\/episode\\\/11\"],\"id\":7,\"type\":\"Genetic experiment\",\"url\":\"https:\\\/\\\/rickandmortyapi.com\\\/api\\\/character\\\/7\",\"status\":\"unknown\"},{\"image\":\"https:\\\/\\\/rickandmortyapi.com\\\/api\\\/character\\\/avatar\\\/8.jpeg\",\"gender\":\"Male\",\"species\":\"Human\",\"created\":\"2017-11-04T20:03:34.737Z\",\"origin\":{\"name\":\"unknown\",\"url\":\"\"},\"name\":\"Adjudicator Rick\",\"location\":{\"name\":\"Citadel of Ricks\",\"url\":\"https:\\\/\\\/rickandmortyapi.com\\\/api\\\/location\\\/3\"},\"episode\":[\"https:\\\/\\\/rickandmortyapi.com\\\/api\\\/episode\\\/28\"],\"id\":8,\"type\":\"\",\"url\":\"https:\\\/\\\/rickandmortyapi.com\\\/api\\\/character\\\/8\",\"status\":\"Dead\"},{\"image\":\"https:\\\/\\\/rickandmortyapi.com\\\/api\\\/character\\\/avatar\\\/9.jpeg\",\"gender\":\"Male\",\"species\":\"Human\",\"created\":\"2017-11-04T20:06:54.976Z\",\"origin\":{\"name\":\"Earth (Replacement Dimension)\",\"url\":\"https:\\\/\\\/rickandmortyapi.com\\\/api\\\/location\\\/20\"},\"name\":\"Agency Director\",\"location\":{\"name\":\"Earth (Replacement Dimension)\",\"url\":\"https:\\\/\\\/rickandmortyapi.com\\\/api\\\/location\\\/20\"},\"episode\":[\"https:\\\/\\\/rickandmortyapi.com\\\/api\\\/episode\\\/24\"],\"id\":9,\"type\":\"\",\"url\":\"https:\\\/\\\/rickandmortyapi.com\\\/api\\\/character\\\/9\",\"status\":\"Dead\"},{\"image\":\"https:\\\/\\\/rickandmortyapi.com\\\/api\\\/character\\\/avatar\\\/10.jpeg\",\"gender\":\"Male\",\"species\":\"Human\",\"created\":\"2017-11-04T20:19:09.017Z\",\"origin\":{\"name\":\"unknown\",\"url\":\"\"},\"name\":\"Alan Rails\",\"location\":{\"name\":\"Worldender's lair\",\"url\":\"https:\\\/\\\/rickandmortyapi.com\\\/api\\\/location\\\/4\"},\"episode\":[\"https:\\\/\\\/rickandmortyapi.com\\\/api\\\/episode\\\/25\"],\"id\":10,\"type\":\"Superhuman (Ghost trains summoner)\",\"url\":\"https:\\\/\\\/rickandmortyapi.com\\\/api\\\/character\\\/10\",\"status\":\"Dead\"},{\"image\":\"https:\\\/\\\/rickandmortyapi.com\\\/api\\\/character\\\/avatar\\\/11.jpeg\",\"gender\":\"Male\",\"species\":\"Human\",\"created\":\"2017-11-04T20:20:20.965Z\",\"origin\":{\"name\":\"Earth (C-137)\",\"url\":\"https:\\\/\\\/rickandmortyapi.com\\\/api\\\/location\\\/1\"},\"name\":\"Albert Einstein\",\"location\":{\"name\":\"Earth (Replacement Dimension)\",\"url\":\"https:\\\/\\\/rickandmortyapi.com\\\/api\\\/location\\\/20\"},\"episode\":[\"https:\\\/\\\/rickandmortyapi.com\\\/api\\\/episode\\\/12\"],\"id\":11,\"type\":\"\",\"url\":\"https:\\\/\\\/rickandmortyapi.com\\\/api\\\/character\\\/11\",\"status\":\"Dead\"},{\"image\":\"https:\\\/\\\/rickandmortyapi.com\\\/api\\\/character\\\/avatar\\\/12.jpeg\",\"gender\":\"Male\",\"species\":\"Human\",\"created\":\"2017-11-04T20:32:33.144Z\",\"origin\":{\"name\":\"Earth (C-137)\",\"url\":\"https:\\\/\\\/rickandmortyapi.com\\\/api\\\/location\\\/1\"},\"name\":\"Alexander\",\"location\":{\"name\":\"Anatomy Park\",\"url\":\"https:\\\/\\\/rickandmortyapi.com\\\/api\\\/location\\\/5\"},\"episode\":[\"https:\\\/\\\/rickandmortyapi.com\\\/api\\\/episode\\\/3\"],\"id\":12,\"type\":\"\",\"url\":\"https:\\\/\\\/rickandmortyapi.com\\\/api\\\/character\\\/12\",\"status\":\"Dead\"},{\"image\":\"https:\\\/\\\/rickandmortyapi.com\\\/api\\\/character\\\/avatar\\\/13.jpeg\",\"gender\":\"unknown\",\"species\":\"Alien\",\"created\":\"2017-11-04T20:33:30.779Z\",\"origin\":{\"name\":\"unknown\",\"url\":\"\"},\"name\":\"Alien Googah\",\"location\":{\"name\":\"Earth (Replacement Dimension)\",\"url\":\"https:\\\/\\\/rickandmortyapi.com\\\/api\\\/location\\\/20\"},\"episode\":[\"https:\\\/\\\/rickandmortyapi.com\\\/api\\\/episode\\\/31\"],\"id\":13,\"type\":\"\",\"url\":\"https:\\\/\\\/rickandmortyapi.com\\\/api\\\/character\\\/13\",\"status\":\"unknown\"},{\"image\":\"https:\\\/\\\/rickandmortyapi.com\\\/api\\\/character\\\/avatar\\\/14.jpeg\",\"gender\":\"Male\",\"species\":\"Alien\",\"created\":\"2017-11-04T20:51:31.373Z\",\"origin\":{\"name\":\"unknown\",\"url\":\"\"},\"name\":\"Alien Morty\",\"location\":{\"name\":\"Citadel of Ricks\",\"url\":\"https:\\\/\\\/rickandmortyapi.com\\\/api\\\/location\\\/3\"},\"episode\":[\"https:\\\/\\\/rickandmortyapi.com\\\/api\\\/episode\\\/10\"],\"id\":14,\"type\":\"\",\"url\":\"https:\\\/\\\/rickandmortyapi.com\\\/api\\\/character\\\/14\",\"status\":\"unknown\"},{\"image\":\"https:\\\/\\\/rickandmortyapi.com\\\/api\\\/character\\\/avatar\\\/15.jpeg\",\"gender\":\"Male\",\"species\":\"Alien\",\"created\":\"2017-11-04T20:56:13.215Z\",\"origin\":{\"name\":\"unknown\",\"url\":\"\"},\"name\":\"Alien Rick\",\"location\":{\"name\":\"Citadel of Ricks\",\"url\":\"https:\\\/\\\/rickandmortyapi.com\\\/api\\\/location\\\/3\"},\"episode\":[\"https:\\\/\\\/rickandmortyapi.com\\\/api\\\/episode\\\/10\"],\"id\":15,\"type\":\"\",\"url\":\"https:\\\/\\\/rickandmortyapi.com\\\/api\\\/character\\\/15\",\"status\":\"unknown\"},{\"image\":\"https:\\\/\\\/rickandmortyapi.com\\\/api\\\/character\\\/avatar\\\/16.jpeg\",\"gender\":\"Male\",\"species\":\"Alien\",\"created\":\"2017-11-04T21:12:45.235Z\",\"origin\":{\"name\":\"unknown\",\"url\":\"\"},\"name\":\"Amish Cyborg\",\"location\":{\"name\":\"Earth (Replacement Dimension)\",\"url\":\"https:\\\/\\\/rickandmortyapi.com\\\/api\\\/location\\\/20\"},\"episode\":[\"https:\\\/\\\/rickandmortyapi.com\\\/api\\\/episode\\\/15\"],\"id\":16,\"type\":\"Parasite\",\"url\":\"https:\\\/\\\/rickandmortyapi.com\\\/api\\\/character\\\/16\",\"status\":\"Dead\"},{\"image\":\"https:\\\/\\\/rickandmortyapi.com\\\/api\\\/character\\\/avatar\\\/17.jpeg\",\"gender\":\"Female\",\"species\":\"Human\",\"created\":\"2017-11-04T22:21:24.481Z\",\"origin\":{\"name\":\"Earth (C-137)\",\"url\":\"https:\\\/\\\/rickandmortyapi.com\\\/api\\\/location\\\/1\"},\"name\":\"Annie\",\"location\":{\"name\":\"Anatomy Park\",\"url\":\"https:\\\/\\\/rickandmortyapi.com\\\/api\\\/location\\\/5\"},\"episode\":[\"https:\\\/\\\/rickandmortyapi.com\\\/api\\\/episode\\\/3\"],\"id\":17,\"type\":\"\",\"url\":\"https:\\\/\\\/rickandmortyapi.com\\\/api\\\/character\\\/17\",\"status\":\"Alive\"},{\"image\":\"https:\\\/\\\/rickandmortyapi.com\\\/api\\\/character\\\/avatar\\\/18.jpeg\",\"gender\":\"Male\",\"species\":\"Human\",\"created\":\"2017-11-04T22:25:29.008Z\",\"origin\":{\"name\":\"unknown\",\"url\":\"\"},\"name\":\"Antenna Morty\",\"location\":{\"name\":\"Citadel of Ricks\",\"url\":\"https:\\\/\\\/rickandmortyapi.com\\\/api\\\/location\\\/3\"},\"episode\":[\"https:\\\/\\\/rickandmortyapi.com\\\/api\\\/episode\\\/10\",\"https:\\\/\\\/rickandmortyapi.com\\\/api\\\/episode\\\/28\"],\"id\":18,\"type\":\"Human with antennae\",\"url\":\"https:\\\/\\\/rickandmortyapi.com\\\/api\\\/character\\\/18\",\"status\":\"Alive\"},{\"image\":\"https:\\\/\\\/rickandmortyapi.com\\\/api\\\/character\\\/avatar\\\/19.jpeg\",\"gender\":\"Male\",\"species\":\"Human\",\"created\":\"2017-11-04T22:28:13.756Z\",\"origin\":{\"name\":\"unknown\",\"url\":\"\"},\"name\":\"Antenna Rick\",\"location\":{\"name\":\"unknown\",\"url\":\"\"},\"episode\":[\"https:\\\/\\\/rickandmortyapi.com\\\/api\\\/episode\\\/10\"],\"id\":19,\"type\":\"Human with antennae\",\"url\":\"https:\\\/\\\/rickandmortyapi.com\\\/api\\\/character\\\/19\",\"status\":\"unknown\"},{\"image\":\"https:\\\/\\\/rickandmortyapi.com\\\/api\\\/character\\\/avatar\\\/20.jpeg\",\"gender\":\"Male\",\"species\":\"Human\",\"created\":\"2017-11-04T22:34:53.659Z\",\"origin\":{\"name\":\"unknown\",\"url\":\"\"},\"name\":\"Ants in my Eyes Johnson\",\"location\":{\"name\":\"Interdimensional Cable\",\"url\":\"https:\\\/\\\/rickandmortyapi.com\\\/api\\\/location\\\/6\"},\"episode\":[\"https:\\\/\\\/rickandmortyapi.com\\\/api\\\/episode\\\/8\"],\"id\":20,\"type\":\"Human with ants in his eyes\",\"url\":\"https:\\\/\\\/rickandmortyapi.com\\\/api\\\/character\\\/20\",\"status\":\"unknown\"}],\"info\":{\"next\":\"https:\\\/\\\/rickandmortyapi.com\\\/api\\\/character?page=2\",\"pages\":34,\"prev\":null,\"count\":671}}\n"},{"result":{"nanos":36700,"millis":0.0367,"status":"passed"},"step":{"line":9,"prefix":"Then","index":2,"text":"status 200"}}],"executorName":"main","line":6,"name":"get all users and then get the first user by id","description":"","durationMillis":1291.1134,"startTime":1620196002875,"failed":false,"refId":"[1:6]","endTime":1620196004462,"exampleIndex":-1}],"callDepth":0,"name":"sample karate test script","description":"","resultDate":"2021-05-05 02:26:44 AM","durationMillis":1291.1134,"passedCount":1}